{
  "originalUrl": "https://www.la-razon.com/casa.html",
  "title": "Página no encontrada - La Razón | Noticias de Bolivia y el Mundo",
  "archiveTime": "2020-04-19T10:02:52.508Z",
  "indexFilename": "index.html",
  "resources": {
    "fonts/1.woff2": "https://use.fontawesome.com/releases/v5.6.3/webfonts/fa-brands-400.woff2",
    "fonts/2.woff2": "https://use.fontawesome.com/releases/v5.6.3/webfonts/fa-solid-900.woff2",
    "fonts/3.ttf": "https://www.la-razon.com/wp-content/themes/lr-genosha/css/fonts/Montserrat/Montserrat-Regular.ttf",
    "fonts/4.ttf": "https://www.la-razon.com/wp-content/themes/lr-genosha/css/fonts/Montserrat/Montserrat-Bold.ttf",
    "images/5.png": "https://www.la-razon.com/wp-content/uploads/2020/04/favicon-lr.png",
    "images/6.png": "https://www.la-razon.com/wp-content/themes/lr-genosha/assets/img/la-razon-logo.png",
    "images/7.png": "https://www.la-razon.com/wp-content/themes/lr-genosha/assets/img/404.png",
    "images/8.png": "https://www.la-razon.com/wp-content/themes/lr-genosha/assets/img/suplementos/marcas/logo-white-no-p.png",
    "images/9.png": "https://www.la-razon.com/wp-content/themes/lr-genosha/assets/img/suplementos/mia/logo-white-no-p.png",
    "images/10.png": "https://www.la-razon.com/wp-content/themes/lr-genosha/assets/img/suplementos/escape/logo-white-no-p.png",
    "images/11.png": "https://www.la-razon.com/wp-content/themes/lr-genosha/assets/img/suplementos/extra/logo-white-no-p.png",
    "images/12.png": "https://www.la-razon.com/wp-content/themes/lr-genosha/assets/img/suplementos/tendencias/logo-white-no-p.png",
    "images/13.png": "https://www.la-razon.com/wp-content/themes/lr-genosha/assets/img/suplementos/financiero/logo-white-no-p.png",
    "images/14.png": "https://www.la-razon.com/wp-content/themes/lr-genosha/assets/img/suplementos/politico/logo-white-no-p.png",
    "images/15.png": "https://www.la-razon.com/wp-content/themes/lr-genosha/assets/img/suplementos/escape/logo-min.png",
    "images/16.png": "https://www.la-razon.com/wp-content/themes/lr-genosha/assets/img/suplementos/extra/logo-min.png",
    "images/17.png": "https://www.la-razon.com/wp-content/themes/lr-genosha/assets/img/suplementos/financiero/logo-min.png",
    "images/18.png": "https://www.la-razon.com/wp-content/themes/lr-genosha/assets/img/suplementos/marcas/logo-min.png",
    "images/19.png": "https://www.la-razon.com/wp-content/themes/lr-genosha/assets/img/suplementos/mia/logo-min.png",
    "images/20.png": "https://www.la-razon.com/wp-content/themes/lr-genosha/assets/img/suplementos/politico/logo-min.png",
    "images/21.png": "https://www.la-razon.com/wp-content/themes/lr-genosha/assets/img/suplementos/tendencias/logo-min.png",
    "stylesheet_0.css": "https://www.la-razon.com/wp-includes/css/dist/block-library/style.min.css?ver=5.3.2",
    "stylesheet_1.css": "https://www.la-razon.com/wp-content/plugins/newspack-blocks/dist/block_styles.css?ver=1.0.0-alpha.17",
    "stylesheet_2.css": "https://www.la-razon.com/wp-content/themes/lr-genosha/css/libs/bootstrap/bootstrap.min.css?ver=5.3.2",
    "stylesheet_3.css": "https://use.fontawesome.com/releases/v5.6.3/css/all.css?ver=5.3.2",
    "stylesheet_4.css": "https://www.la-razon.com/wp-content/themes/lr-genosha/css/libs/animate.css?ver=5.3.2",
    "stylesheet_5.css": "https://www.la-razon.com/wp-content/themes/lr-genosha/css/libs/rb-slider.css?ver=5.3.2",
    "stylesheet_6.css": "https://www.la-razon.com/wp-content/themes/lr-genosha/css/libs/rb-parallax.css?ver=5.3.2",
    "stylesheet_7.css": "https://www.la-razon.com/wp-content/plugins/jetpack/css/jetpack.css?ver=8.3",
    "stylesheet_8.css": "https://www.la-razon.com/wp-content/themes/lr-genosha/style.css"
  }
}